{
  "openapi": "3.0.1",
  "info": {
    "title": "Gateway",
    "version": "v1"
  },
  "paths": {
    "/api/Authorization": {
      "get": {
        "tags": [
          "Authorization"
        ],
        "summary": "Метод авторизации",
        "operationId": "api/AuthorizationGET",
        "responses": {
          "200": {
            "description": "Success"
          }
        }
      },
      "post": {
        "tags": [
          "Authorization"
        ],
        "operationId": "api/AuthorizationPOST",
        "requestBody": {
          "content": {
            "application/json": {
              "schema": {
                "$ref": "#/components/schemas/MessageDto"
              }
            },
            "text/json": {
              "schema": {
                "$ref": "#/components/schemas/MessageDto"
              }
            },
            "application/*+json": {
              "schema": {
                "$ref": "#/components/schemas/MessageDto"
              }
            }
          }
        },
        "responses": {
          "200": {
            "description": "Success"
          }
        }
      }
    },
    "/api/Registration": {
      "post": {
        "tags": [
          "Registration"
        ],
        "summary": "Запрос на регистрацию",
        "operationId": "api/RegistrationPOST",
        "requestBody": {
          "content": {
            "application/json": {
              "schema": {
                "$ref": "#/components/schemas/RegistrationRequest"
              }
            },
            "text/json": {
              "schema": {
                "$ref": "#/components/schemas/RegistrationRequest"
              }
            },
            "application/*+json": {
              "schema": {
                "$ref": "#/components/schemas/RegistrationRequest"
              }
            }
          }
        },
        "responses": {
          "200": {
            "description": "Success"
          },
          "default": {
            "description": "Error",
            "content": {
              "text/plain": {
                "schema": {
                  "$ref": "#/components/schemas/ProblemDetails"
                }
              },
              "application/json": {
                "schema": {
                  "$ref": "#/components/schemas/ProblemDetails"
                }
              },
              "text/json": {
                "schema": {
                  "$ref": "#/components/schemas/ProblemDetails"
                }
              }
            }
          }
        }
      }
    }
  },
  "components": {
    "schemas": {
      "MessageDto": {
        "type": "object",
        "properties": {
          "id": {
            "type": "string",
            "format": "uuid"
          }
        },
        "additionalProperties": false
      },
      "ProblemDetails": {
        "type": "object",
        "properties": {
          "type": {
            "type": "string",
            "nullable": true
          },
          "title": {
            "type": "string",
            "nullable": true
          },
          "status": {
            "type": "integer",
            "format": "int32",
            "nullable": true
          },
          "detail": {
            "type": "string",
            "nullable": true
          },
          "instance": {
            "type": "string",
            "nullable": true
          }
        },
        "additionalProperties": {},
        "example": "{\r\n  \"Type\": \"Microsoft.AspNetCore.Http.BadHttpRequestException\",\r\n  \"Title\": \"One or more validation errors occurred\",\r\n  \"Status\": 400,\r\n  \"Extensions\": {}\r\n}"
      },
      "RegistrationRequest": {
        "type": "object",
        "properties": {
          "partnerId": {
            "type": "string",
            "format": "uuid"
          },
          "workerId": {
            "type": "string",
            "format": "uuid"
          },
          "scheduledOnTime": {
            "type": "string",
            "format": "date-time"
          },
          "information": {
            "type": "string",
            "nullable": true
          }
        },
        "additionalProperties": false,
        "example": "{\r\n  \"PartnerId\": \"3fa85f64-5717-4562-b3fc-2c963f66afa6\",\r\n  \"WorkerId\": \"3fa85f64-5717-4562-b3fc-2c963f66afa6\",\r\n  \"ScheduledOnTime\": \"2023-04-26T15:46:00.4801697Z\",\r\n  \"Information\": \"Тестовая заявка\"\r\n}"
      }
    },
    "securitySchemes": {
      "Bearer": {
        "type": "apiKey",
        "description": "Введите авторизационный токен пользователя, для выполнения запроса с авторизацией под этим пользователем. Пример ввода : 'Bearer Токен'",
        "name": "Authorization",
        "in": "cookie"
      }
    }
  },
  "security": [
    {
      "Bearer": []
    }
  ]
}